<svg 
 xmlns="http://www.w3.org/2000/svg"
 xmlns:xlink="http://www.w3.org/1999/xlink"
 width="19px" height="19px">
<path fill-rule="evenodd"  opacity="0.149" fill="rgb(10, 162, 242)"
 d="M14.000,18.000 L14.000,10.000 L13.000,9.000 L12.000,9.000 L11.000,10.000 L11.000,18.000 L9.000,18.000 L7.000,18.000 L7.000,6.000 L16.000,6.000 L18.000,8.000 L18.000,18.000 L14.000,18.000 ZM1.000,6.000 L5.000,6.000 L5.000,18.000 L1.000,18.000 L1.000,6.000 ZM3.000,5.000 C1.895,5.000 1.000,4.105 1.000,3.000 C1.000,1.895 1.895,1.000 3.000,1.000 C4.105,1.000 5.000,1.895 5.000,3.000 C5.000,4.105 4.105,5.000 3.000,5.000 Z"/>
<path fill-rule="evenodd"  fill="rgb(10, 162, 242)"
 d="M4.681,5.727 L1.441,5.727 C1.220,5.727 1.040,5.909 1.040,6.133 L1.040,17.585 C1.040,17.809 1.220,17.991 1.441,17.991 L4.681,17.991 C4.903,17.991 5.083,17.809 5.083,17.585 L5.083,6.133 C5.083,5.908 4.903,5.727 4.681,5.727 ZM4.280,17.179 L1.842,17.179 L1.842,6.539 L4.280,6.539 L4.280,17.179 ZM13.715,5.588 C12.142,5.588 11.112,6.274 10.515,6.871 L10.440,6.094 C10.421,5.885 10.247,5.727 10.041,5.727 L10.033,5.727 L7.080,5.784 C6.971,5.786 6.868,5.833 6.795,5.913 C6.720,5.993 6.681,6.099 6.686,6.209 C6.723,7.045 6.722,8.022 6.720,9.154 L6.720,17.642 C6.720,17.867 6.900,18.048 7.121,18.048 L10.362,18.048 C10.583,18.048 10.763,17.867 10.763,17.642 L10.763,11.022 C10.763,10.684 10.792,10.440 10.849,10.294 C11.051,9.774 11.718,9.237 12.483,9.237 C13.474,9.237 14.066,9.999 14.066,11.276 L14.066,17.642 C14.066,17.867 14.245,18.048 14.467,18.048 L17.650,18.048 C17.872,18.048 18.052,17.867 18.052,17.642 L18.052,10.861 C18.052,7.559 16.430,5.588 13.715,5.588 ZM17.248,17.237 L14.868,17.237 L14.868,11.276 C14.868,9.544 13.932,8.425 12.483,8.425 C11.333,8.425 10.398,9.235 10.103,9.995 C10.006,10.242 9.960,10.569 9.960,11.022 L9.960,17.237 L7.523,17.237 L7.523,9.155 C7.524,8.194 7.525,7.343 7.503,6.588 L9.677,6.546 L9.802,7.854 C9.822,8.063 9.995,8.222 10.202,8.222 L10.270,8.222 C10.409,8.222 10.537,8.150 10.611,8.031 C10.847,7.648 11.771,6.400 13.715,6.400 C15.961,6.400 17.249,8.026 17.249,10.861 L17.249,17.237 L17.248,17.237 ZM3.197,0.951 C1.894,0.951 0.948,1.860 0.948,3.111 C0.948,4.361 1.875,5.269 3.152,5.269 C4.468,5.269 5.424,4.361 5.424,3.101 C5.394,1.835 4.479,0.951 3.197,0.951 ZM3.152,4.457 C2.327,4.457 1.751,3.904 1.751,3.111 C1.751,2.305 2.332,1.763 3.197,1.763 C4.043,1.763 4.602,2.296 4.621,3.111 C4.621,3.916 4.030,4.457 3.152,4.457 Z"/>
</svg>